^C:\USERS\ILAYPC\SOURCE\REPOS\LESSON_6_EXEPTIONS\EXERCISE2\DEBUG\CIRCLE.OBJ|C:\USERS\ILAYPC\SOURCE\REPOS\LESSON_6_EXEPTIONS\EXERCISE2\DEBUG\HEXAGON.OBJ|C:\USERS\ILAYPC\SOURCE\REPOS\LESSON_6_EXEPTIONS\EXERCISE2\DEBUG\MAIN.OBJ|C:\USERS\ILAYPC\SOURCE\REPOS\LESSON_6_EXEPTIONS\EXERCISE2\DEBUG\MATHUTLIS.OBJ|C:\USERS\ILAYPC\SOURCE\REPOS\LESSON_6_EXEPTIONS\EXERCISE2\DEBUG\PARALLELOGRAM.OBJ|C:\USERS\ILAYPC\SOURCE\REPOS\LESSON_6_EXEPTIONS\EXERCISE2\DEBUG\PENTAGON.OBJ|C:\USERS\ILAYPC\SOURCE\REPOS\LESSON_6_EXEPTIONS\EXERCISE2\DEBUG\QUADRILATERAL.OBJ|C:\USERS\ILAYPC\SOURCE\REPOS\LESSON_6_EXEPTIONS\EXERCISE2\DEBUG\RECTANGLE.OBJ|C:\USERS\ILAYPC\SOURCE\REPOS\LESSON_6_EXEPTIONS\EXERCISE2\DEBUG\SHAPE.OBJ
C:\USERS\ILAYPC\SOURCE\REPOS\LESSON_6_EXEPTIONS\DEBUG\EXERCISE2.EXE
C:\USERS\ILAYPC\SOURCE\REPOS\LESSON_6_EXEPTIONS\DEBUG\EXERCISE2.ILK
C:\USERS\ILAYPC\SOURCE\REPOS\LESSON_6_EXEPTIONS\DEBUG\EXERCISE2.PDB
