^C:\USERS\ILAYPC\SOURCE\REPOS\LESSON_6_EXEPTIONS\EXERCISE1\DEBUG\BASIC_CALC.OBJ
C:\USERS\ILAYPC\SOURCE\REPOS\LESSON_6_EXEPTIONS\DEBUG\EXERCISE1.EXE
C:\USERS\ILAYPC\SOURCE\REPOS\LESSON_6_EXEPTIONS\DEBUG\EXERCISE1.ILK
C:\USERS\ILAYPC\SOURCE\REPOS\LESSON_6_EXEPTIONS\DEBUG\EXERCISE1.PDB
